<?xml version="1.0" encoding="utf-8"?>
<svg xmlns="http://www.w3.org/2000/svg" style="margin: auto; background: none; display: block; shape-rendering: auto;" width="280" height="250" preserveAspectRatio="xMidYMid">
<style type="text/css">
  text {
    text-anchor: middle; font-size: 32px; opacity: 0;
  }
</style>
<g style="transform-origin: 140px 125px; transform: scale(0.615385);">
<g transform="translate(140,125)">
  <g transform="translate(0,0)"><g class="path" style="opacity: 1; transform-origin: -87.72px -3.30866px; animation: 0.900901s linear -0.540541s infinite normal forwards running fade-ba46bec6-492b-4632-b023-6c97f625f19c;"><path d="M4.58 0L4.58-35.46L8.94-35.46L8.94-4.16L25.06-4.16L25.06 0L4.58 0" fill="#34383b" stroke="none" stroke-width="none" transform="translate(-102.54000854492188,14.421338833895598)" style="fill: rgb(52, 56, 59);"></path></g><g class="path" style="opacity: 1; transform-origin: -61.98px 1.42134px; animation: 0.900901s linear -0.486486s infinite normal forwards running fade-ba46bec6-492b-4632-b023-6c97f625f19c;"><path d="M32.34-12.95L32.34-12.95L32.34-12.95Q32.34-7.90 34.61-5.43L34.61-5.43L34.61-5.43Q36.87-2.96 40.72-2.96L40.72-2.96L40.72-2.96Q44.51-2.96 46.64-5.41L46.64-5.41L46.64-5.41Q48.78-7.85 48.78-12.74L48.78-12.74L48.78-12.74Q48.78-17.94 46.51-20.49L46.51-20.49L46.51-20.49Q44.25-23.04 40.35-23.04L40.35-23.04L40.35-23.04Q36.45-23.04 34.40-20.51L34.40-20.51L34.40-20.51Q32.34-17.99 32.34-12.95zM27.92-13.00L27.92-13.00L27.92-13.00Q27.92-16.95 29.17-19.58L29.17-19.58L29.17-19.58Q30.42-22.20 32.34-23.79L32.34-23.79L32.34-23.79Q34.27-25.38 36.48-26.03L36.48-26.03L36.48-26.03Q38.69-26.68 40.66-26.68L40.66-26.68L40.66-26.68Q42.54-26.68 44.75-26.08L44.75-26.08L44.75-26.08Q46.96-25.48 48.83-23.95L48.83-23.95L48.83-23.95Q50.70-22.41 51.95-19.84L51.95-19.84L51.95-19.84Q53.20-17.26 53.20-13.31L53.20-13.31L53.20-13.31Q53.20-9.20 51.92-6.50L51.92-6.50L51.92-6.50Q50.65-3.80 48.72-2.21L48.72-2.21L48.72-2.21Q46.80-0.62 44.56 0.03L44.56 0.03L44.56 0.03Q42.33 0.68 40.40 0.68L40.40 0.68L40.40 0.68Q38.43 0.68 36.24 0.05L36.24 0.05L36.24 0.05Q34.06-0.57 32.21-2.11L32.21-2.11L32.21-2.11Q30.37-3.64 29.15-6.29L29.15-6.29L29.15-6.29Q27.92-8.94 27.92-13.00" fill="#34383b" stroke="none" stroke-width="none" transform="translate(-102.54000854492188,14.421338833895598)" style="fill: rgb(52, 56, 59);"></path></g><g class="path" style="opacity: 1; transform-origin: -34.89px 1.42134px; animation: 0.900901s linear -0.432432s infinite normal forwards running fade-ba46bec6-492b-4632-b023-6c97f625f19c;"><path d="M73.79-6.08L73.79-12.01L73.79-12.01Q72.75-11.96 71.81-11.91L71.81-11.91L71.81-11.91Q70.88-11.86 69.97-11.78L69.97-11.78L69.97-11.78Q69.06-11.70 68.33-11.60L68.33-11.60L68.33-11.60Q64.58-11.13 63.02-9.96L63.02-9.96L63.02-9.96Q61.46-8.79 61.46-6.60L61.46-6.60L61.46-6.60Q61.46-4.78 62.58-3.87L62.58-3.87L62.58-3.87Q63.70-2.96 65.52-2.96L65.52-2.96L65.52-2.96Q68.02-2.96 69.97-3.82L69.97-3.82L69.97-3.82Q71.92-4.68 73.79-6.08L73.79-6.08zM74.26 0.42L73.74-2.44L73.74-2.44Q71.29-1.04 69.19-0.18L69.19-0.18L69.19-0.18Q67.08 0.68 64.64 0.68L64.64 0.68L64.64 0.68Q61.15 0.68 59.10-1.01L59.10-1.01L59.10-1.01Q57.04-2.70 57.04-6.60L57.04-6.60L57.04-6.60Q57.04-8.63 58.08-10.14L58.08-10.14L58.08-10.14Q59.12-11.65 60.81-12.66L60.81-12.66L60.81-12.66Q62.50-13.68 64.64-14.25L64.64-14.25L64.64-14.25Q66.77-14.82 69.00-14.98L69.00-14.98L69.00-14.98Q69.94-15.08 71.45-15.16L71.45-15.16L71.45-15.16Q72.96-15.24 73.79-15.29L73.79-15.29L73.79-15.29Q73.79-17.11 73.68-18.54L73.68-18.54L73.68-18.54Q73.58-19.97 73.06-20.98L73.06-20.98L73.06-20.98Q72.54-22.00 71.53-22.52L71.53-22.52L71.53-22.52Q70.51-23.04 68.64-23.04L68.64-23.04L68.64-23.04Q67.13-23.04 65.73-22.85L65.73-22.85L65.73-22.85Q64.32-22.67 63.23-22.46L63.23-22.46L63.23-22.46Q61.93-22.20 60.84-21.89L60.84-21.89L60.01-25.48L60.01-25.48Q61.31-25.79 62.82-26.05L62.82-26.05L62.82-26.05Q64.12-26.31 65.83-26.49L65.83-26.49L65.83-26.49Q67.55-26.68 69.52-26.68L69.52-26.68L69.52-26.68Q72.18-26.68 73.81-25.90L73.81-25.90L73.81-25.90Q75.45-25.12 76.36-23.79L76.36-23.79L76.36-23.79Q77.27-22.46 77.61-20.77L77.61-20.77L77.61-20.77Q77.95-19.08 77.95-17.21L77.95-17.21L77.95-4.73L77.95-4.73Q77.95-4.00 77.97-3.20L77.97-3.20L77.97-3.20Q78.00-2.39 78.08-1.61L78.08-1.61L78.08-1.61Q78.16-0.83 78.26 0L78.26 0L74.26 0.42" fill="#34383b" stroke="none" stroke-width="none" transform="translate(-102.54000854492188,14.421338833895598)" style="fill: rgb(52, 56, 59);"></path></g><g class="path" style="opacity: 1; transform-origin: -7.56001px -4.94866px; animation: 0.900901s linear -0.378378s infinite normal forwards running fade-ba46bec6-492b-4632-b023-6c97f625f19c;"><path d="M101.61-5.72L101.61-22.26L101.61-22.26Q99.74-22.78 98.70-22.91L98.70-22.91L98.70-22.91Q97.66-23.04 96.56-23.04L96.56-23.04L96.56-23.04Q94.38-23.04 92.82-22.26L92.82-22.26L92.82-22.26Q91.26-21.48 90.25-20.10L90.25-20.10L90.25-20.10Q89.23-18.72 88.76-16.93L88.76-16.93L88.76-16.93Q88.30-15.13 88.30-13.10L88.30-13.10L88.30-13.10Q88.30-11.28 88.69-9.46L88.69-9.46L88.69-9.46Q89.08-7.64 89.91-6.19L89.91-6.19L89.91-6.19Q90.74-4.73 91.94-3.85L91.94-3.85L91.94-3.85Q93.13-2.96 94.80-2.96L94.80-2.96L94.80-2.96Q95.94-2.96 97.16-3.38L97.16-3.38L97.16-3.38Q98.38-3.80 99.42-4.34L99.42-4.34L99.42-4.34Q100.46-4.89 101.61-5.72L101.61-5.72zM102.08 0.42L101.66-2.08L101.66-2.08Q100.46-1.25 99.35-0.70L99.35-0.70L99.35-0.70Q98.23-0.16 96.90 0.26L96.90 0.26L96.90 0.26Q95.58 0.68 94.33 0.68L94.33 0.68L94.33 0.68Q89.44 0.68 86.66-2.78L86.66-2.78L86.66-2.78Q83.88-6.24 83.88-12.90L83.88-12.90L83.88-12.90Q83.88-16.85 85.15-19.50L85.15-19.50L85.15-19.50Q86.42-22.15 88.35-23.74L88.35-23.74L88.35-23.74Q90.27-25.32 92.48-26.00L92.48-26.00L92.48-26.00Q94.69-26.68 96.56-26.68L96.56-26.68L96.56-26.68Q97.50-26.68 98.54-26.55L98.54-26.55L98.54-26.55Q99.58-26.42 101.61-25.90L101.61-25.90L101.61-38.95L105.77-39.42L105.77-4.73L105.77-4.73Q105.77-4.00 105.79-3.20L105.79-3.20L105.79-3.20Q105.82-2.39 105.90-1.61L105.90-1.61L105.90-1.61Q105.98-0.83 106.08 0L106.08 0L102.08 0.42" fill="#34383b" stroke="none" stroke-width="none" transform="translate(-102.54000854492188,14.421338833895598)" style="fill: rgb(52, 56, 59);"></path></g><g class="path" style="opacity: 1; transform-origin: 12.85px 1.08134px; animation: 0.900901s linear -0.324324s infinite normal forwards running fade-ba46bec6-492b-4632-b023-6c97f625f19c;"><path d="M113.31 0L113.31-26.21L117.47-26.68L117.47 0L113.31 0" fill="#34383b" stroke="none" stroke-width="none" transform="translate(-102.54000854492188,14.421338833895598)" style="fill: rgb(52, 56, 59);"></path></g><g class="path" style="opacity: 1; transform-origin: 12.975px -19.2237px; animation: 0.900901s linear -0.27027s infinite normal forwards running fade-ba46bec6-492b-4632-b023-6c97f625f19c;"><path d="M112.63-33.64L112.63-33.64L112.63-33.64Q112.63-34.84 113.44-35.65L113.44-35.65L113.44-35.65Q114.24-36.45 115.44-36.45L115.44-36.45L115.44-36.45Q116.69-36.45 117.55-35.65L117.55-35.65L117.55-35.65Q118.40-34.84 118.40-33.64L118.40-33.64L118.40-33.64Q118.40-32.45 117.55-31.64L117.55-31.64L117.55-31.64Q116.69-30.84 115.44-30.84L115.44-30.84L115.44-30.84Q114.24-30.84 113.44-31.64L113.44-31.64L113.44-31.64Q112.63-32.45 112.63-33.64" fill="#34383b" stroke="none" stroke-width="none" transform="translate(-102.54000854492188,14.421338833895598)" style="fill: rgb(52, 56, 59);"></path></g><g class="path" style="opacity: 1; transform-origin: 32.87px 1.08134px; animation: 0.900901s linear -0.216216s infinite normal forwards running fade-ba46bec6-492b-4632-b023-6c97f625f19c;"><path d="M125.01 0L125.01-20.96L125.01-20.96Q125.06-22.05 124.75-25.69L124.75-25.69L128.60-26.21L129.17-22.88L129.17-22.88Q130.73-23.92 132.26-24.70L132.26-24.70L132.26-24.70Q133.80-25.48 135.41-26.08L135.41-26.08L135.41-26.08Q137.02-26.68 138.53-26.68L138.53-26.68L138.53-26.68Q140.66-26.68 142.09-26.18L142.09-26.18L142.09-26.18Q143.52-25.69 144.40-24.54L144.40-24.54L144.40-24.54Q145.29-23.40 145.68-21.53L145.68-21.53L145.68-21.53Q146.07-19.66 146.07-16.85L146.07-16.85L146.07 0L141.91 0L141.91-16.38L141.91-16.38Q141.91-17.94 141.86-19.16L141.86-19.16L141.86-19.16Q141.80-20.38 141.41-21.24L141.41-21.24L141.41-21.24Q141.02-22.10 140.22-22.57L140.22-22.57L140.22-22.57Q139.41-23.04 137.96-23.04L137.96-23.04L137.96-23.04Q136.60-23.04 135.10-22.44L135.10-22.44L135.10-22.44Q133.59-21.84 132.13-21.06L132.13-21.06L132.13-21.06Q130.68-20.28 129.17-19.24L129.17-19.24L129.17 0L125.01 0" fill="#34383b" stroke="none" stroke-width="none" transform="translate(-102.54000854492188,14.421338833895598)" style="fill: rgb(52, 56, 59);"></path></g><g class="path" style="opacity: 1; transform-origin: 60.405px 7.40134px; animation: 0.900901s linear -0.162162s infinite normal forwards running fade-ba46bec6-492b-4632-b023-6c97f625f19c;"><path d="M173.89-25.53L173.89 2.50L173.89 2.50Q173.89 4.42 173.47 6.24L173.47 6.24L173.47 6.24Q173.06 8.06 171.89 9.49L171.89 9.49L171.89 9.49Q170.72 10.92 168.61 11.78L168.61 11.78L168.61 11.78Q166.50 12.64 163.07 12.64L163.07 12.64L163.07 12.64Q160.89 12.58 159.28 12.38L159.28 12.38L159.28 12.38Q157.66 12.17 156.21 11.78L156.21 11.78L156.21 11.78Q154.75 11.39 153.56 10.87L153.56 10.87L154.65 7.23L154.65 7.23Q156.68 8.11 158.78 8.58L158.78 8.58L158.78 8.58Q160.89 9.05 162.55 9.05L162.55 9.05L162.55 9.05Q164.37 9.05 165.72 8.68L165.72 8.68L165.72 8.68Q167.08 8.32 167.99 7.46L167.99 7.46L167.99 7.46Q168.90 6.60 169.34 5.20L169.34 5.20L169.34 5.20Q169.78 3.80 169.78 1.72L169.78 1.72L169.78-2.08L169.78-2.08Q168.69-1.35 167.52-0.75L167.52-0.75L167.52-0.75Q166.35-0.16 165.02 0.26L165.02 0.26L165.02 0.26Q163.70 0.68 162.45 0.68L162.45 0.68L162.45 0.68Q157.61 0.68 154.80-2.73L154.80-2.73L154.80-2.73Q152.00-6.14 152.00-12.90L152.00-12.90L152.00-12.90Q152.00-16.80 153.22-19.42L153.22-19.42L153.22-19.42Q154.44-22.05 156.31-23.66L156.31-23.66L156.31-23.66Q158.18-25.27 160.42-25.97L160.42-25.97L160.42-25.97Q162.66-26.68 164.68-26.68L164.68-26.68L164.68-26.68Q167.34-26.68 169.55-26.23L169.55-26.23L169.55-26.23Q171.76-25.79 173.89-25.53L173.89-25.53zM162.92-2.96L162.92-2.96L162.92-2.96Q164.06-2.96 165.26-3.38L165.26-3.38L165.26-3.38Q166.45-3.80 167.57-4.37L167.57-4.37L167.57-4.37Q168.69-4.94 169.78-5.72L169.78-5.72L169.78-22.31L169.78-22.31Q169.16-22.46 168.32-22.67L168.32-22.67L168.32-22.67Q167.60-22.78 166.66-22.91L166.66-22.91L166.66-22.91Q165.72-23.04 164.68-23.04L164.68-23.04L164.68-23.04Q162.50-23.04 160.94-22.26L160.94-22.26L160.94-22.26Q159.38-21.48 158.37-20.12L158.37-20.12L158.37-20.12Q157.35-18.77 156.88-16.95L156.88-16.95L156.88-16.95Q156.42-15.13 156.42-13.10L156.42-13.10L156.42-13.10Q156.42-11.28 156.81-9.46L156.81-9.46L156.81-9.46Q157.20-7.64 158.03-6.19L158.03-6.19L158.03-6.19Q158.86-4.73 160.06-3.85L160.06-3.85L160.06-3.85Q161.25-2.96 162.92-2.96" fill="#34383b" stroke="none" stroke-width="none" transform="translate(-102.54000854492188,14.421338833895598)" style="fill: rgb(52, 56, 59);"></path></g><g class="path" style="opacity: 1; transform-origin: 80.89px 11.3513px; animation: 0.900901s linear -0.108108s infinite normal forwards running fade-ba46bec6-492b-4632-b023-6c97f625f19c;"><path d="M180.28-3.07L180.28-3.07L180.28-3.07Q180.28-4.32 181.17-5.23L181.17-5.23L181.17-5.23Q182.05-6.14 183.35-6.14L183.35-6.14L183.35-6.14Q184.70-6.14 185.64-5.23L185.64-5.23L185.64-5.23Q186.58-4.32 186.58-3.07L186.58-3.07L186.58-3.07Q186.58-1.77 185.64-0.88L185.64-0.88L185.64-0.88Q184.70 0 183.35 0L183.35 0L183.35 0Q182.05 0 181.17-0.88L181.17-0.88L181.17-0.88Q180.28-1.77 180.28-3.07" fill="#34383b" stroke="none" stroke-width="none" transform="translate(-102.54000854492188,14.421338833895598)" style="fill: rgb(52, 56, 59);"></path></g><g class="path" style="opacity: 1; transform-origin: 92.435px 11.3513px; animation: 0.900901s linear -0.0540541s infinite normal forwards running fade-ba46bec6-492b-4632-b023-6c97f625f19c;"><path d="M191.83-3.07L191.83-3.07L191.83-3.07Q191.83-4.32 192.71-5.23L192.71-5.23L192.71-5.23Q193.60-6.14 194.90-6.14L194.90-6.14L194.90-6.14Q196.25-6.14 197.18-5.23L197.18-5.23L197.18-5.23Q198.12-4.32 198.12-3.07L198.12-3.07L198.12-3.07Q198.12-1.77 197.18-0.88L197.18-0.88L197.18-0.88Q196.25 0 194.90 0L194.90 0L194.90 0Q193.60 0 192.71-0.88L192.71-0.88L192.71-0.88Q191.83-1.77 191.83-3.07" fill="#34383b" stroke="none" stroke-width="none" transform="translate(-102.54000854492188,14.421338833895598)" style="fill: rgb(52, 56, 59);"></path></g><g class="path" style="opacity: 1; transform-origin: 103.975px 11.3513px; animation: 0.900901s linear 0s infinite normal forwards running fade-ba46bec6-492b-4632-b023-6c97f625f19c;"><path d="M203.37-3.07L203.37-3.07L203.37-3.07Q203.37-4.32 204.26-5.23L204.26-5.23L204.26-5.23Q205.14-6.14 206.44-6.14L206.44-6.14L206.44-6.14Q207.79-6.14 208.73-5.23L208.73-5.23L208.73-5.23Q209.66-4.32 209.66-3.07L209.66-3.07L209.66-3.07Q209.66-1.77 208.73-0.88L208.73-0.88L208.73-0.88Q207.79 0 206.44 0L206.44 0L206.44 0Q205.14 0 204.26-0.88L204.26-0.88L204.26-0.88Q203.37-1.77 203.37-3.07" fill="#34383b" stroke="none" stroke-width="none" transform="translate(-102.54000854492188,14.421338833895598)" style="fill: rgb(52, 56, 59);"></path></g></g>
</g>
</g>
<style id="fade-ba46bec6-492b-4632-b023-6c97f625f19c" data-anikit="">@keyframes fade-ba46bec6-492b-4632-b023-6c97f625f19c
{
  0% {
    animation-timing-function: cubic-bezier(0.2057,0.573,0.3723,0.9184);
    opacity: 1;
  }
  100% {
    opacity: 0;
  }
}</style></svg>